{
  "name": "mweetman-scom",
  "version": "0.1.0",
  "author": "mweetman",
  "summary": "Manages scom",
  "license": "Apache 2.0",
  "source": "https://gitlab.com/mweetman/puppet-modules",
  "issues_url": "https://gitlab.com/mweetman/puppet-modules",
  "project_page": "https://gitlab.com/mweetman/puppet-modules",
  "operatingsystem_support": [
        {
        "operatingsystem":"RedHat",
        "operatingsystemrelease":[ "7" ]
        },
        {
        "operatingsystem": "centos",
        "operatingsystemrelease": [ "7" ]
        }
  ],
  "dependencies": [
  ]
}

